lab6/run/b10_dumpports.vcd
$comment
	File created using the following command:
		vcd file b10_dumpports.vcd -dumpports
$end
$date
	Wed Nov 17 13:23:32 2021
$end
$version
	dumpports QuestaSim Version 10.5c_4
$end
$timescale
	1ns
$end

$scope module b12_testbench $end

$scope module dut $end
$var port [3:0] <0 k $end
$var port [3:0] <1 nl $end
$var port 1 <2 clock $end
$var port 1 <3 reset $end
$var port 1 <4 start $end
$var port 1 <5 nloss $end
$var port 1 <6 speaker $end
$upscope $end
$upscope $end
$enddefinitions $end
#0
$dumpports
pD 6 0 <2
pD 6 0 <3
pD 6 0 <4
pX 6 6 <5
pX 6 6 <6
pDDDU 6660 0006 <0 
pXXXX 6666 6666 <1 
$end
#50
pU 0 6 <3
pL 6 0 <6
pL 6 0 <5
pLLLL 6666 0000 <1 
#80
pD 6 0 <3
#100
pU 0 6 <4
pDDDD 6666 0000 <0 
#150
pU 0 6 <2
#180
pD 6 0 <2
#200
pUDDD 0666 6000 <0 
#250
pU 0 6 <2
#280
pD 6 0 <2
#300
pD 6 0 <4
pUUDD 0066 6600 <0 
#350
pU 0 6 <2
#380
pD 6 0 <2
#400
pU 0 6 <4
pDUUD 6006 0660 <0 
#450
pU 0 6 <2
#480
pD 6 0 <2
#500
pUDUU 0600 6066 <0 
$vcdclose
