lab6/run/b12_dumpports.vcd
$comment
	File created using the following command:
		vcd file b12_dumpports.vcd -dumpports
$end
$date
	Wed Nov 17 13:57:49 2021
$end
$version
	dumpports QuestaSim Version 10.5c_4
$end
$timescale
	1ns
$end

$scope module b12_testbench $end

$scope module dut $end
$var port [3:0] <0 k $end
$var port [3:0] <1 nl $end
$var port 1 <2 clock $end
$var port 1 <3 reset $end
$var port 1 <4 start $end
$var port 1 <5 nloss $end
$var port 1 <6 speaker $end
$upscope $end
$upscope $end
$enddefinitions $end
#0
$dumpports
pD 6 0 <2
pD 6 0 <3
pD 6 0 <4
pX 6 6 <5
pX 6 6 <6
pDDDU 6660 0006 <0 
pXXXX 6666 6666 <1 
$end
#50
pU 0 6 <3
pL 6 0 <6
pL 6 0 <5
pLLLL 6666 0000 <1 
#80
pD 6 0 <3
#100
pU 0 6 <4
pDDDD 6666 0000 <0 
#150
pU 0 6 <2
#180
pD 6 0 <2
#200
pUDDD 0666 6000 <0 
#250
pU 0 6 <2
#280
pD 6 0 <2
#300
pD 6 0 <4
pUUDD 0066 6600 <0 
#350
pU 0 6 <2
#380
pD 6 0 <2
#400
pU 0 6 <4
pDUUD 6006 0660 <0 
#450
pU 0 6 <2
#480
pD 6 0 <2
#500
pUDUU 0600 6066 <0 
#550
pU 0 6 <2
#580
pD 6 0 <2
#600
pUUDU 0060 6606 <0 
#650
pU 0 6 <2
#680
pD 6 0 <2
#700
pUUUD 0006 6660 <0 
#750
pU 0 6 <2
#780
pD 6 0 <2
#800
pD 6 0 <4
pUUUU 0000 6666 <0 
#850
pU 0 6 <2
#880
pD 6 0 <2
#900
pDUUU 6000 0666 <0 
#950
pU 0 6 <2
#980
pD 6 0 <2
#1000
pU 0 6 <4
pDDUU 6600 0066 <0 
#1050
pU 0 6 <2
#1080
pD 6 0 <2
#1100
pD 6 0 <4
pUDDU 0660 6006 <0 
#1150
pU 0 6 <2
#1180
pD 6 0 <2
#1200
pDUDD 6066 0600 <0 
#1250
pU 0 6 <2
#1280
pD 6 0 <2
#1300
pDDUD 6606 0060 <0 
#1350
pU 0 6 <2
#1380
pD 6 0 <2
#1400
pDDDU 6660 0006 <0 
#1450
pU 0 6 <2
pLHLL 6066 0600 <1 
#1480
pD 6 0 <2
#1500
pU 0 6 <4
pDDDD 6666 0000 <0 
#1550
pU 0 6 <2
pLLLL 6666 0000 <1 
#1580
pD 6 0 <2
#1600
pUDDD 0666 6000 <0 
#1650
pU 0 6 <2
#1680
pD 6 0 <2
#1700
pD 6 0 <4
pUUDD 0066 6600 <0 
#1750
pU 0 6 <2
#1780
pD 6 0 <2
#1800
pU 0 6 <4
pDUUD 6006 0660 <0 
#1850
pU 0 6 <2
#1880
pD 6 0 <2
#1900
pUDUU 0600 6066 <0 
#1950
pU 0 6 <2
#1980
pD 6 0 <2
#2000
pUUDU 0060 6606 <0 
$vcdclose
