riscv_testing_2021/run/dumpports_rtl.vcd
$comment
	File created using the following command:
		vcd file dumpports_rtl.vcd -dumpports
$end
$date
	Fri Oct 29 21:23:52 2021
$end
$version
	dumpports QuestaSim Version 10.5c_4
$end
$timescale
	1ns
$end

$scope module tb_top $end

$scope module riscv_wrapper_i $end

$scope module riscv_core_i $end
$var port 1 <0 clk_i $end
$var port 1 <1 rst_ni $end
$var port 1 <2 clock_en_i $end
$var port 1 <3 test_en_i $end
$var port 1 <4 fregfile_disable_i $end
$var port 1 <5 boot_addr_i [31] $end
$var port 1 <6 boot_addr_i [30] $end
$var port 1 <7 boot_addr_i [29] $end
$var port 1 <8 boot_addr_i [28] $end
$var port 1 <9 boot_addr_i [27] $end
$var port 1 <10 boot_addr_i [26] $end
$var port 1 <11 boot_addr_i [25] $end
$var port 1 <12 boot_addr_i [24] $end
$var port 1 <13 boot_addr_i [23] $end
$var port 1 <14 boot_addr_i [22] $end
$var port 1 <15 boot_addr_i [21] $end
$var port 1 <16 boot_addr_i [20] $end
$var port 1 <17 boot_addr_i [19] $end
$var port 1 <18 boot_addr_i [18] $end
$var port 1 <19 boot_addr_i [17] $end
$var port 1 <20 boot_addr_i [16] $end
$var port 1 <21 boot_addr_i [15] $end
$var port 1 <22 boot_addr_i [14] $end
$var port 1 <23 boot_addr_i [13] $end
$var port 1 <24 boot_addr_i [12] $end
$var port 1 <25 boot_addr_i [11] $end
$var port 1 <26 boot_addr_i [10] $end
$var port 1 <27 boot_addr_i [9] $end
$var port 1 <28 boot_addr_i [8] $end
$var port 1 <29 boot_addr_i [7] $end
$var port 1 <30 boot_addr_i [6] $end
$var port 1 <31 boot_addr_i [5] $end
$var port 1 <32 boot_addr_i [4] $end
$var port 1 <33 boot_addr_i [3] $end
$var port 1 <34 boot_addr_i [2] $end
$var port 1 <35 boot_addr_i [1] $end
$var port 1 <36 boot_addr_i [0] $end
$var port 1 <37 core_id_i [3] $end
$var port 1 <38 core_id_i [2] $end
$var port 1 <39 core_id_i [1] $end
$var port 1 <40 core_id_i [0] $end
$var port 1 <41 cluster_id_i [5] $end
$var port 1 <42 cluster_id_i [4] $end
$var port 1 <43 cluster_id_i [3] $end
$var port 1 <44 cluster_id_i [2] $end
$var port 1 <45 cluster_id_i [1] $end
$var port 1 <46 cluster_id_i [0] $end
$var port 1 <47 instr_gnt_i $end
$var port 1 <48 instr_rvalid_i $end
$var port 1 <49 instr_rdata_i [127] $end
$var port 1 <50 instr_rdata_i [126] $end
$var port 1 <51 instr_rdata_i [125] $end
$var port 1 <52 instr_rdata_i [124] $end
$var port 1 <53 instr_rdata_i [123] $end
$var port 1 <54 instr_rdata_i [122] $end
$var port 1 <55 instr_rdata_i [121] $end
$var port 1 <56 instr_rdata_i [120] $end
$var port 1 <57 instr_rdata_i [119] $end
$var port 1 <58 instr_rdata_i [118] $end
$var port 1 <59 instr_rdata_i [117] $end
$var port 1 <60 instr_rdata_i [116] $end
$var port 1 <61 instr_rdata_i [115] $end
$var port 1 <62 instr_rdata_i [114] $end
$var port 1 <63 instr_rdata_i [113] $end
$var port 1 <64 instr_rdata_i [112] $end
$var port 1 <65 instr_rdata_i [111] $end
$var port 1 <66 instr_rdata_i [110] $end
$var port 1 <67 instr_rdata_i [109] $end
$var port 1 <68 instr_rdata_i [108] $end
$var port 1 <69 instr_rdata_i [107] $end
$var port 1 <70 instr_rdata_i [106] $end
$var port 1 <71 instr_rdata_i [105] $end
$var port 1 <72 instr_rdata_i [104] $end
$var port 1 <73 instr_rdata_i [103] $end
$var port 1 <74 instr_rdata_i [102] $end
$var port 1 <75 instr_rdata_i [101] $end
$var port 1 <76 instr_rdata_i [100] $end
$var port 1 <77 instr_rdata_i [99] $end
$var port 1 <78 instr_rdata_i [98] $end
$var port 1 <79 instr_rdata_i [97] $end
$var port 1 <80 instr_rdata_i [96] $end
$var port 1 <81 instr_rdata_i [95] $end
$var port 1 <82 instr_rdata_i [94] $end
$var port 1 <83 instr_rdata_i [93] $end
$var port 1 <84 instr_rdata_i [92] $end
$var port 1 <85 instr_rdata_i [91] $end
$var port 1 <86 instr_rdata_i [90] $end
$var port 1 <87 instr_rdata_i [89] $end
$var port 1 <88 instr_rdata_i [88] $end
$var port 1 <89 instr_rdata_i [87] $end
$var port 1 <90 instr_rdata_i [86] $end
$var port 1 <91 instr_rdata_i [85] $end
$var port 1 <92 instr_rdata_i [84] $end
$var port 1 <93 instr_rdata_i [83] $end
$var port 1 <94 instr_rdata_i [82] $end
$var port 1 <95 instr_rdata_i [81] $end
$var port 1 <96 instr_rdata_i [80] $end
$var port 1 <97 instr_rdata_i [79] $end
$var port 1 <98 instr_rdata_i [78] $end
$var port 1 <99 instr_rdata_i [77] $end
$var port 1 <100 instr_rdata_i [76] $end
$var port 1 <101 instr_rdata_i [75] $end
$var port 1 <102 instr_rdata_i [74] $end
$var port 1 <103 instr_rdata_i [73] $end
$var port 1 <104 instr_rdata_i [72] $end
$var port 1 <105 instr_rdata_i [71] $end
$var port 1 <106 instr_rdata_i [70] $end
$var port 1 <107 instr_rdata_i [69] $end
$var port 1 <108 instr_rdata_i [68] $end
$var port 1 <109 instr_rdata_i [67] $end
$var port 1 <110 instr_rdata_i [66] $end
$var port 1 <111 instr_rdata_i [65] $end
$var port 1 <112 instr_rdata_i [64] $end
$var port 1 <113 instr_rdata_i [63] $end
$var port 1 <114 instr_rdata_i [62] $end
$var port 1 <115 instr_rdata_i [61] $end
$var port 1 <116 instr_rdata_i [60] $end
$var port 1 <117 instr_rdata_i [59] $end
$var port 1 <118 instr_rdata_i [58] $end
$var port 1 <119 instr_rdata_i [57] $end
$var port 1 <120 instr_rdata_i [56] $end
$var port 1 <121 instr_rdata_i [55] $end
$var port 1 <122 instr_rdata_i [54] $end
$var port 1 <123 instr_rdata_i [53] $end
$var port 1 <124 instr_rdata_i [52] $end
$var port 1 <125 instr_rdata_i [51] $end
$var port 1 <126 instr_rdata_i [50] $end
$var port 1 <127 instr_rdata_i [49] $end
$var port 1 <128 instr_rdata_i [48] $end
$var port 1 <129 instr_rdata_i [47] $end
$var port 1 <130 instr_rdata_i [46] $end
$var port 1 <131 instr_rdata_i [45] $end
$var port 1 <132 instr_rdata_i [44] $end
$var port 1 <133 instr_rdata_i [43] $end
$var port 1 <134 instr_rdata_i [42] $end
$var port 1 <135 instr_rdata_i [41] $end
$var port 1 <136 instr_rdata_i [40] $end
$var port 1 <137 instr_rdata_i [39] $end
$var port 1 <138 instr_rdata_i [38] $end
$var port 1 <139 instr_rdata_i [37] $end
$var port 1 <140 instr_rdata_i [36] $end
$var port 1 <141 instr_rdata_i [35] $end
$var port 1 <142 instr_rdata_i [34] $end
$var port 1 <143 instr_rdata_i [33] $end
$var port 1 <144 instr_rdata_i [32] $end
$var port 1 <145 instr_rdata_i [31] $end
$var port 1 <146 instr_rdata_i [30] $end
$var port 1 <147 instr_rdata_i [29] $end
$var port 1 <148 instr_rdata_i [28] $end
$var port 1 <149 instr_rdata_i [27] $end
$var port 1 <150 instr_rdata_i [26] $end
$var port 1 <151 instr_rdata_i [25] $end
$var port 1 <152 instr_rdata_i [24] $end
$var port 1 <153 instr_rdata_i [23] $end
$var port 1 <154 instr_rdata_i [22] $end
$var port 1 <155 instr_rdata_i [21] $end
$var port 1 <156 instr_rdata_i [20] $end
$var port 1 <157 instr_rdata_i [19] $end
$var port 1 <158 instr_rdata_i [18] $end
$var port 1 <159 instr_rdata_i [17] $end
$var port 1 <160 instr_rdata_i [16] $end
$var port 1 <161 instr_rdata_i [15] $end
$var port 1 <162 instr_rdata_i [14] $end
$var port 1 <163 instr_rdata_i [13] $end
$var port 1 <164 instr_rdata_i [12] $end
$var port 1 <165 instr_rdata_i [11] $end
$var port 1 <166 instr_rdata_i [10] $end
$var port 1 <167 instr_rdata_i [9] $end
$var port 1 <168 instr_rdata_i [8] $end
$var port 1 <169 instr_rdata_i [7] $end
$var port 1 <170 instr_rdata_i [6] $end
$var port 1 <171 instr_rdata_i [5] $end
$var port 1 <172 instr_rdata_i [4] $end
$var port 1 <173 instr_rdata_i [3] $end
$var port 1 <174 instr_rdata_i [2] $end
$var port 1 <175 instr_rdata_i [1] $end
$var port 1 <176 instr_rdata_i [0] $end
$var port 1 <177 data_gnt_i $end
$var port 1 <178 data_rvalid_i $end
$var port 1 <179 data_rdata_i [31] $end
$var port 1 <180 data_rdata_i [30] $end
$var port 1 <181 data_rdata_i [29] $end
$var port 1 <182 data_rdata_i [28] $end
$var port 1 <183 data_rdata_i [27] $end
$var port 1 <184 data_rdata_i [26] $end
$var port 1 <185 data_rdata_i [25] $end
$var port 1 <186 data_rdata_i [24] $end
$var port 1 <187 data_rdata_i [23] $end
$var port 1 <188 data_rdata_i [22] $end
$var port 1 <189 data_rdata_i [21] $end
$var port 1 <190 data_rdata_i [20] $end
$var port 1 <191 data_rdata_i [19] $end
$var port 1 <192 data_rdata_i [18] $end
$var port 1 <193 data_rdata_i [17] $end
$var port 1 <194 data_rdata_i [16] $end
$var port 1 <195 data_rdata_i [15] $end
$var port 1 <196 data_rdata_i [14] $end
$var port 1 <197 data_rdata_i [13] $end
$var port 1 <198 data_rdata_i [12] $end
$var port 1 <199 data_rdata_i [11] $end
$var port 1 <200 data_rdata_i [10] $end
$var port 1 <201 data_rdata_i [9] $end
$var port 1 <202 data_rdata_i [8] $end
$var port 1 <203 data_rdata_i [7] $end
$var port 1 <204 data_rdata_i [6] $end
$var port 1 <205 data_rdata_i [5] $end
$var port 1 <206 data_rdata_i [4] $end
$var port 1 <207 data_rdata_i [3] $end
$var port 1 <208 data_rdata_i [2] $end
$var port 1 <209 data_rdata_i [1] $end
$var port 1 <210 data_rdata_i [0] $end
$var port 1 <211 apu_master_req_o $end
$var port 1 <212 apu_master_ready_o $end
$var port 1 <213 apu_master_gnt_i $end
$var port 1 <214 apu_master_operands_o [0] $end
$var port 1 <215 apu_master_operands_o [1] $end
$var port 1 <216 apu_master_operands_o [2] $end
$var port 1 <217 apu_master_operands_o [3] $end
$var port 1 <218 apu_master_operands_o [4] $end
$var port 1 <219 apu_master_operands_o [5] $end
$var port 1 <220 apu_master_operands_o [6] $end
$var port 1 <221 apu_master_operands_o [7] $end
$var port 1 <222 apu_master_operands_o [8] $end
$var port 1 <223 apu_master_operands_o [9] $end
$var port 1 <224 apu_master_operands_o [10] $end
$var port 1 <225 apu_master_operands_o [11] $end
$var port 1 <226 apu_master_operands_o [12] $end
$var port 1 <227 apu_master_operands_o [13] $end
$var port 1 <228 apu_master_operands_o [14] $end
$var port 1 <229 apu_master_operands_o [15] $end
$var port 1 <230 apu_master_operands_o [16] $end
$var port 1 <231 apu_master_operands_o [17] $end
$var port 1 <232 apu_master_operands_o [18] $end
$var port 1 <233 apu_master_operands_o [19] $end
$var port 1 <234 apu_master_operands_o [20] $end
$var port 1 <235 apu_master_operands_o [21] $end
$var port 1 <236 apu_master_operands_o [22] $end
$var port 1 <237 apu_master_operands_o [23] $end
$var port 1 <238 apu_master_operands_o [24] $end
$var port 1 <239 apu_master_operands_o [25] $end
$var port 1 <240 apu_master_operands_o [26] $end
$var port 1 <241 apu_master_operands_o [27] $end
$var port 1 <242 apu_master_operands_o [28] $end
$var port 1 <243 apu_master_operands_o [29] $end
$var port 1 <244 apu_master_operands_o [30] $end
$var port 1 <245 apu_master_operands_o [31] $end
$var port 1 <246 apu_master_operands_o [32] $end
$var port 1 <247 apu_master_operands_o [33] $end
$var port 1 <248 apu_master_operands_o [34] $end
$var port 1 <249 apu_master_operands_o [35] $end
$var port 1 <250 apu_master_operands_o [36] $end
$var port 1 <251 apu_master_operands_o [37] $end
$var port 1 <252 apu_master_operands_o [38] $end
$var port 1 <253 apu_master_operands_o [39] $end
$var port 1 <254 apu_master_operands_o [40] $end
$var port 1 <255 apu_master_operands_o [41] $end
$var port 1 <256 apu_master_operands_o [42] $end
$var port 1 <257 apu_master_operands_o [43] $end
$var port 1 <258 apu_master_operands_o [44] $end
$var port 1 <259 apu_master_operands_o [45] $end
$var port 1 <260 apu_master_operands_o [46] $end
$var port 1 <261 apu_master_operands_o [47] $end
$var port 1 <262 apu_master_operands_o [48] $end
$var port 1 <263 apu_master_operands_o [49] $end
$var port 1 <264 apu_master_operands_o [50] $end
$var port 1 <265 apu_master_operands_o [51] $end
$var port 1 <266 apu_master_operands_o [52] $end
$var port 1 <267 apu_master_operands_o [53] $end
$var port 1 <268 apu_master_operands_o [54] $end
$var port 1 <269 apu_master_operands_o [55] $end
$var port 1 <270 apu_master_operands_o [56] $end
$var port 1 <271 apu_master_operands_o [57] $end
$var port 1 <272 apu_master_operands_o [58] $end
$var port 1 <273 apu_master_operands_o [59] $end
$var port 1 <274 apu_master_operands_o [60] $end
$var port 1 <275 apu_master_operands_o [61] $end
$var port 1 <276 apu_master_operands_o [62] $end
$var port 1 <277 apu_master_operands_o [63] $end
$var port 1 <278 apu_master_operands_o [64] $end
$var port 1 <279 apu_master_operands_o [65] $end
$var port 1 <280 apu_master_operands_o [66] $end
$var port 1 <281 apu_master_operands_o [67] $end
$var port 1 <282 apu_master_operands_o [68] $end
$var port 1 <283 apu_master_operands_o [69] $end
$var port 1 <284 apu_master_operands_o [70] $end
$var port 1 <285 apu_master_operands_o [71] $end
$var port 1 <286 apu_master_operands_o [72] $end
$var port 1 <287 apu_master_operands_o [73] $end
$var port 1 <288 apu_master_operands_o [74] $end
$var port 1 <289 apu_master_operands_o [75] $end
$var port 1 <290 apu_master_operands_o [76] $end
$var port 1 <291 apu_master_operands_o [77] $end
$var port 1 <292 apu_master_operands_o [78] $end
$var port 1 <293 apu_master_operands_o [79] $end
$var port 1 <294 apu_master_operands_o [80] $end
$var port 1 <295 apu_master_operands_o [81] $end
$var port 1 <296 apu_master_operands_o [82] $end
$var port 1 <297 apu_master_operands_o [83] $end
$var port 1 <298 apu_master_operands_o [84] $end
$var port 1 <299 apu_master_operands_o [85] $end
$var port 1 <300 apu_master_operands_o [86] $end
$var port 1 <301 apu_master_operands_o [87] $end
$var port 1 <302 apu_master_operands_o [88] $end
$var port 1 <303 apu_master_operands_o [89] $end
$var port 1 <304 apu_master_operands_o [90] $end
$var port 1 <305 apu_master_operands_o [91] $end
$var port 1 <306 apu_master_operands_o [92] $end
$var port 1 <307 apu_master_operands_o [93] $end
$var port 1 <308 apu_master_operands_o [94] $end
$var port 1 <309 apu_master_operands_o [95] $end
$var port 1 <310 apu_master_op_o [5] $end
$var port 1 <311 apu_master_op_o [4] $end
$var port 1 <312 apu_master_op_o [3] $end
$var port 1 <313 apu_master_op_o [2] $end
$var port 1 <314 apu_master_op_o [1] $end
$var port 1 <315 apu_master_op_o [0] $end
$var port 1 <316 apu_master_type_o [-1] $end
$var port 1 <317 apu_master_type_o [0] $end
$var port 1 <318 apu_master_flags_o [14] $end
$var port 1 <319 apu_master_flags_o [13] $end
$var port 1 <320 apu_master_flags_o [12] $end
$var port 1 <321 apu_master_flags_o [11] $end
$var port 1 <322 apu_master_flags_o [10] $end
$var port 1 <323 apu_master_flags_o [9] $end
$var port 1 <324 apu_master_flags_o [8] $end
$var port 1 <325 apu_master_flags_o [7] $end
$var port 1 <326 apu_master_flags_o [6] $end
$var port 1 <327 apu_master_flags_o [5] $end
$var port 1 <328 apu_master_flags_o [4] $end
$var port 1 <329 apu_master_flags_o [3] $end
$var port 1 <330 apu_master_flags_o [2] $end
$var port 1 <331 apu_master_flags_o [1] $end
$var port 1 <332 apu_master_flags_o [0] $end
$var port 1 <333 apu_master_valid_i $end
$var port 1 <334 apu_master_result_i [31] $end
$var port 1 <335 apu_master_result_i [30] $end
$var port 1 <336 apu_master_result_i [29] $end
$var port 1 <337 apu_master_result_i [28] $end
$var port 1 <338 apu_master_result_i [27] $end
$var port 1 <339 apu_master_result_i [26] $end
$var port 1 <340 apu_master_result_i [25] $end
$var port 1 <341 apu_master_result_i [24] $end
$var port 1 <342 apu_master_result_i [23] $end
$var port 1 <343 apu_master_result_i [22] $end
$var port 1 <344 apu_master_result_i [21] $end
$var port 1 <345 apu_master_result_i [20] $end
$var port 1 <346 apu_master_result_i [19] $end
$var port 1 <347 apu_master_result_i [18] $end
$var port 1 <348 apu_master_result_i [17] $end
$var port 1 <349 apu_master_result_i [16] $end
$var port 1 <350 apu_master_result_i [15] $end
$var port 1 <351 apu_master_result_i [14] $end
$var port 1 <352 apu_master_result_i [13] $end
$var port 1 <353 apu_master_result_i [12] $end
$var port 1 <354 apu_master_result_i [11] $end
$var port 1 <355 apu_master_result_i [10] $end
$var port 1 <356 apu_master_result_i [9] $end
$var port 1 <357 apu_master_result_i [8] $end
$var port 1 <358 apu_master_result_i [7] $end
$var port 1 <359 apu_master_result_i [6] $end
$var port 1 <360 apu_master_result_i [5] $end
$var port 1 <361 apu_master_result_i [4] $end
$var port 1 <362 apu_master_result_i [3] $end
$var port 1 <363 apu_master_result_i [2] $end
$var port 1 <364 apu_master_result_i [1] $end
$var port 1 <365 apu_master_result_i [0] $end
$var port 1 <366 apu_master_flags_i [4] $end
$var port 1 <367 apu_master_flags_i [3] $end
$var port 1 <368 apu_master_flags_i [2] $end
$var port 1 <369 apu_master_flags_i [1] $end
$var port 1 <370 apu_master_flags_i [0] $end
$var port 1 <371 irq_i $end
$var port 1 <372 irq_id_i [4] $end
$var port 1 <373 irq_id_i [3] $end
$var port 1 <374 irq_id_i [2] $end
$var port 1 <375 irq_id_i [1] $end
$var port 1 <376 irq_id_i [0] $end
$var port 1 <377 irq_sec_i $end
$var port 1 <378 sec_lvl_o $end
$var port 1 <379 debug_req_i $end
$var port 1 <380 fetch_enable_i $end
$var port 1 <381 core_busy_o $end
$var port 1 <382 ext_perf_counters_i [-1] $end
$var port 1 <383 ext_perf_counters_i [0] $end
$upscope $end
$upscope $end
$upscope $end
$enddefinitions $end
#0
$dumpports
pN 6 6 <97
pN 6 6 <96
pN 6 6 <95
pN 6 6 <94
pN 6 6 <93
pN 6 6 <92
pN 6 6 <91
pN 6 6 <90
pN 6 6 <89
pN 6 6 <88
pN 6 6 <87
pN 6 6 <86
pN 6 6 <85
pN 6 6 <84
pN 6 6 <83
pN 6 6 <82
pN 6 6 <81
pN 6 6 <80
pN 6 6 <79
pN 6 6 <78
pN 6 6 <77
pN 6 6 <76
pN 6 6 <75
pN 6 6 <74
pN 6 6 <73
pN 6 6 <72
pN 6 6 <71
pN 6 6 <70
pN 6 6 <69
pN 6 6 <68
pN 6 6 <67
pN 6 6 <66
pN 6 6 <65
pN 6 6 <64
pN 6 6 <63
pN 6 6 <62
pN 6 6 <61
pN 6 6 <60
pN 6 6 <59
pN 6 6 <58
pN 6 6 <57
pN 6 6 <56
pN 6 6 <55
pN 6 6 <54
pN 6 6 <53
pN 6 6 <52
pN 6 6 <51
pN 6 6 <50
pN 6 6 <49
pD 6 0 <48
pD 6 0 <47
pD 6 0 <46
pD 6 0 <45
pD 6 0 <44
pD 6 0 <43
pD 6 0 <42
pD 6 0 <41
pD 6 0 <40
pD 6 0 <39
pD 6 0 <38
pD 6 0 <37
pD 6 0 <4
pH 0 6 <2
pL 6 0 <3
pD 6 0 <36
pD 6 0 <35
pD 6 0 <34
pD 6 0 <33
pD 6 0 <32
pD 6 0 <31
pD 6 0 <30
pU 0 6 <29
pD 6 0 <28
pD 6 0 <27
pD 6 0 <26
pD 6 0 <25
pD 6 0 <24
pD 6 0 <23
pD 6 0 <22
pD 6 0 <21
pD 6 0 <20
pD 6 0 <19
pD 6 0 <18
pD 6 0 <17
pD 6 0 <16
pD 6 0 <15
pD 6 0 <14
pD 6 0 <13
pD 6 0 <12
pD 6 0 <11
pD 6 0 <10
pD 6 0 <9
pD 6 0 <8
pD 6 0 <7
pD 6 0 <6
pD 6 0 <5
pL 6 0 <211
pH 0 6 <212
pZ 0 0 <213
pL 6 0 <214
pL 6 0 <215
pL 6 0 <216
pL 6 0 <217
pL 6 0 <218
pL 6 0 <219
pL 6 0 <220
pL 6 0 <221
pL 6 0 <222
pL 6 0 <223
pL 6 0 <224
pL 6 0 <225
pL 6 0 <226
pL 6 0 <227
pL 6 0 <228
pL 6 0 <229
pL 6 0 <230
pL 6 0 <231
pL 6 0 <232
pL 6 0 <233
pL 6 0 <234
pL 6 0 <235
pL 6 0 <236
pL 6 0 <237
pL 6 0 <238
pL 6 0 <239
pL 6 0 <240
pL 6 0 <241
pL 6 0 <242
pL 6 0 <243
pL 6 0 <244
pL 6 0 <245
pL 6 0 <246
pL 6 0 <247
pL 6 0 <248
pL 6 0 <249
pL 6 0 <250
pL 6 0 <251
pL 6 0 <252
pL 6 0 <253
pL 6 0 <254
pL 6 0 <255
pL 6 0 <256
pL 6 0 <257
pL 6 0 <258
pL 6 0 <259
pL 6 0 <260
pL 6 0 <261
pL 6 0 <262
pL 6 0 <263
pL 6 0 <264
pL 6 0 <265
pL 6 0 <266
pL 6 0 <267
pL 6 0 <268
pL 6 0 <269
pL 6 0 <270
pL 6 0 <271
pL 6 0 <272
pL 6 0 <273
pL 6 0 <274
pL 6 0 <275
pL 6 0 <276
pL 6 0 <277
pL 6 0 <278
pL 6 0 <279
pL 6 0 <280
pL 6 0 <281
pL 6 0 <282
pL 6 0 <283
pL 6 0 <284
pL 6 0 <285
pL 6 0 <286
pL 6 0 <287
pL 6 0 <288
pL 6 0 <289
pL 6 0 <290
pL 6 0 <291
pL 6 0 <292
pL 6 0 <293
pL 6 0 <294
pL 6 0 <295
pL 6 0 <296
pL 6 0 <297
pL 6 0 <298
pL 6 0 <299
pL 6 0 <300
pL 6 0 <301
pL 6 0 <302
pL 6 0 <303
pL 6 0 <304
pL 6 0 <305
pL 6 0 <306
pL 6 0 <307
pL 6 0 <308
pL 6 0 <309
pL 6 0 <315
pL 6 0 <314
pL 6 0 <313
pL 6 0 <312
pL 6 0 <311
pL 6 0 <310
pL 6 0 <317
pL 6 0 <316
pL 6 0 <332
pL 6 0 <331
pL 6 0 <330
pL 6 0 <329
pL 6 0 <328
pL 6 0 <327
pL 6 0 <326
pL 6 0 <325
pL 6 0 <324
pL 6 0 <323
pL 6 0 <322
pL 6 0 <321
pL 6 0 <320
pL 6 0 <319
pL 6 0 <318
pZ 0 0 <333
pZ 0 0 <365
pZ 0 0 <364
pZ 0 0 <363
pZ 0 0 <362
pZ 0 0 <361
pZ 0 0 <360
pZ 0 0 <359
pZ 0 0 <358
pZ 0 0 <357
pZ 0 0 <356
pZ 0 0 <355
pZ 0 0 <354
pZ 0 0 <353
pZ 0 0 <352
pZ 0 0 <351
pZ 0 0 <350
pZ 0 0 <349
pZ 0 0 <348
pZ 0 0 <347
pZ 0 0 <346
pZ 0 0 <345
pZ 0 0 <344
pZ 0 0 <343
pZ 0 0 <342
pZ 0 0 <341
pZ 0 0 <340
pZ 0 0 <339
pZ 0 0 <338
pZ 0 0 <337
pZ 0 0 <336
pZ 0 0 <335
pZ 0 0 <334
pZ 0 0 <370
pZ 0 0 <369
pZ 0 0 <368
pZ 0 0 <367
pZ 0 0 <366
pZ 0 0 <383
pZ 0 0 <382
pH 0 6 <378
pL 6 0 <381
pU 0 6 <380
pD 6 0 <1
pU 0 6 <0
pD 6 0 <379
pD 6 0 <377
pU 0 6 <376
pU 0 6 <375
pU 0 6 <374
pU 0 6 <373
pU 0 6 <372
pD 6 0 <371
pN 6 6 <210
pN 6 6 <209
pN 6 6 <208
pN 6 6 <207
pN 6 6 <206
pN 6 6 <205
pN 6 6 <204
pN 6 6 <203
pN 6 6 <202
pN 6 6 <201
pN 6 6 <200
pN 6 6 <199
pN 6 6 <198
pN 6 6 <197
pN 6 6 <196
pN 6 6 <195
pN 6 6 <194
pN 6 6 <193
pN 6 6 <192
pN 6 6 <191
pN 6 6 <190
pN 6 6 <189
pN 6 6 <188
pN 6 6 <187
pN 6 6 <186
pN 6 6 <185
pN 6 6 <184
pN 6 6 <183
pN 6 6 <182
pN 6 6 <181
pN 6 6 <180
pN 6 6 <179
pD 6 0 <178
pD 6 0 <177
pN 6 6 <176
pN 6 6 <175
pN 6 6 <174
pN 6 6 <173
pN 6 6 <172
pN 6 6 <171
pN 6 6 <170
pN 6 6 <169
pN 6 6 <168
pN 6 6 <167
pN 6 6 <166
pN 6 6 <165
pN 6 6 <164
pN 6 6 <163
pN 6 6 <162
pN 6 6 <161
pN 6 6 <160
pN 6 6 <159
pN 6 6 <158
pN 6 6 <157
pN 6 6 <156
pN 6 6 <155
pN 6 6 <154
pN 6 6 <153
pN 6 6 <152
pN 6 6 <151
pN 6 6 <150
pN 6 6 <149
pN 6 6 <148
pN 6 6 <147
pN 6 6 <146
pN 6 6 <145
pN 6 6 <144
pN 6 6 <143
pN 6 6 <142
pN 6 6 <141
pN 6 6 <140
pN 6 6 <139
pN 6 6 <138
pN 6 6 <137
pN 6 6 <136
pN 6 6 <135
pN 6 6 <134
pN 6 6 <133
pN 6 6 <132
pN 6 6 <131
pN 6 6 <130
pN 6 6 <129
pN 6 6 <128
pN 6 6 <127
pN 6 6 <126
pN 6 6 <125
pN 6 6 <124
pN 6 6 <123
pN 6 6 <122
pN 6 6 <121
pN 6 6 <120
pN 6 6 <119
pN 6 6 <118
pN 6 6 <117
pN 6 6 <116
pN 6 6 <115
pN 6 6 <114
pN 6 6 <113
pN 6 6 <112
pN 6 6 <111
pN 6 6 <110
pN 6 6 <109
pN 6 6 <108
pN 6 6 <107
pN 6 6 <106
pN 6 6 <105
pN 6 6 <104
pN 6 6 <103
pN 6 6 <102
pN 6 6 <101
pN 6 6 <100
pN 6 6 <99
pN 6 6 <98
$end
#5
pD 6 0 <0
#10
pU 0 6 <0
pU 0 6 <176
pU 0 6 <175
pU 0 6 <174
pU 0 6 <173
pD 6 0 <172
pU 0 6 <171
pU 0 6 <170
pD 6 0 <169
pD 6 0 <168
pD 6 0 <167
pD 6 0 <166
pD 6 0 <165
pD 6 0 <164
pD 6 0 <163
pD 6 0 <162
pD 6 0 <161
pD 6 0 <160
pD 6 0 <159
pD 6 0 <158
pD 6 0 <157
pD 6 0 <156
pU 0 6 <155
pU 0 6 <154
pD 6 0 <153
pU 0 6 <152
pD 6 0 <151
pD 6 0 <150
pD 6 0 <149
pU 0 6 <148
pU 0 6 <147
pD 6 0 <146
pD 6 0 <145
pU 0 6 <144
pU 0 6 <143
pU 0 6 <142
pU 0 6 <141
pD 6 0 <140
pU 0 6 <139
pU 0 6 <138
pD 6 0 <137
pD 6 0 <136
pD 6 0 <135
pD 6 0 <134
pD 6 0 <133
pD 6 0 <132
pD 6 0 <131
pD 6 0 <130
pD 6 0 <129
pD 6 0 <128
pD 6 0 <127
pD 6 0 <126
pD 6 0 <125
pD 6 0 <124
pU 0 6 <123
pD 6 0 <122
pD 6 0 <121
pD 6 0 <120
pD 6 0 <119
pD 6 0 <118
pD 6 0 <117
pU 0 6 <116
pU 0 6 <115
pD 6 0 <114
pD 6 0 <113
pU 0 6 <112
pU 0 6 <111
pU 0 6 <110
pU 0 6 <109
pD 6 0 <108
pU 0 6 <107
pU 0 6 <106
pD 6 0 <105
pD 6 0 <104
pD 6 0 <103
pD 6 0 <102
pD 6 0 <101
pD 6 0 <100
pD 6 0 <99
pD 6 0 <98
pD 6 0 <97
pD 6 0 <96
pD 6 0 <95
pD 6 0 <94
pD 6 0 <93
pD 6 0 <92
pU 0 6 <91
pU 0 6 <90
pU 0 6 <89
pU 0 6 <88
pU 0 6 <87
pU 0 6 <86
pU 0 6 <85
pD 6 0 <84
pU 0 6 <83
pD 6 0 <82
pD 6 0 <81
pU 0 6 <80
pU 0 6 <79
pU 0 6 <78
pU 0 6 <77
pD 6 0 <76
pU 0 6 <75
pU 0 6 <74
pD 6 0 <73
pD 6 0 <72
pD 6 0 <71
pD 6 0 <70
pD 6 0 <69
pD 6 0 <68
pD 6 0 <67
pD 6 0 <66
pD 6 0 <65
pD 6 0 <64
pD 6 0 <63
pD 6 0 <62
pD 6 0 <61
pD 6 0 <60
pU 0 6 <59
pD 6 0 <58
pU 0 6 <57
pU 0 6 <56
pU 0 6 <55
pU 0 6 <54
pU 0 6 <53
pD 6 0 <52
pU 0 6 <51
pD 6 0 <50
pD 6 0 <49
#15
pD 6 0 <0
#20
pU 0 6 <0
#25
pD 6 0 <0
#30
pU 0 6 <0
#35
pD 6 0 <0
#40
pU 0 6 <0
#41
pU 0 6 <1
#45
pD 6 0 <0
#50
pU 0 6 <0
pH 0 6 <381
pU 0 6 <47
#55
pD 6 0 <0
#60
pU 0 6 <0
pD 6 0 <175
pD 6 0 <174
pD 6 0 <173
pD 6 0 <171
pD 6 0 <170
pU 0 6 <169
pU 0 6 <162
pU 0 6 <160
pD 6 0 <155
pD 6 0 <154
pD 6 0 <148
pD 6 0 <147
pU 0 6 <146
pD 6 0 <143
pD 6 0 <142
pD 6 0 <141
pD 6 0 <139
pD 6 0 <138
pU 0 6 <137
pU 0 6 <136
pU 0 6 <130
pU 0 6 <128
pD 6 0 <123
pU 0 6 <119
pD 6 0 <116
pD 6 0 <115
pU 0 6 <114
pD 6 0 <111
pD 6 0 <110
pD 6 0 <109
pD 6 0 <107
pD 6 0 <106
pU 0 6 <105
pU 0 6 <103
pU 0 6 <98
pU 0 6 <96
pD 6 0 <91
pD 6 0 <90
pD 6 0 <89
pD 6 0 <86
pD 6 0 <85
pD 6 0 <83
pU 0 6 <82
pD 6 0 <79
pD 6 0 <78
pD 6 0 <77
pD 6 0 <75
pD 6 0 <74
pU 0 6 <73
pU 0 6 <72
pU 0 6 <71
pU 0 6 <66
pU 0 6 <64
pD 6 0 <59
pD 6 0 <57
pD 6 0 <56
pD 6 0 <55
pD 6 0 <53
pD 6 0 <51
pU 0 6 <50
pU 0 6 <48
pD 6 0 <47
pU 0 6 <47
pD 6 0 <47
